Chapter 8 Working with relational databases | Data science for biology
…
colnames(dengue_longer)[1]  <-  "year"

colnames(dengue_longer)

## [1] "year"             "country"          "dengue_cases"     "dengue_sum_cases"

dengue_db <-  dengue_longer %>%  select (year, country, dengue_sum_cases) %>%  unique()

dengue_db

## # A tibble: 130 × 3
## # Groups:   country, year [130]
##     year country   dengue_sum_cases
##    <int> <chr>                <dbl>
##  1  2002 Bolivia              0.101
##  2  2002 Brazil               0.073
##  3  2002 India                0.062
##  4  2002 Indonesia            0.101
##  5  2002 Singapore            0.059
##  6  2003 Bolivia              3.94 
##  7  2003 Brazil               4.34 
##  8  2003 India                8.86 
##  9  2003 Indonesia            3.15 
## 10  2003 Singapore            6.85 
## # ℹ 120 more rows
…
